^C:\USERS\SEAN\VISUALSTUDIO2017\REPO\MINESWEEPER\MINESWEEPER\MINESWEEPER\DEBUG\CELL.OBJ|C:\USERS\SEAN\VISUALSTUDIO2017\REPO\MINESWEEPER\MINESWEEPER\MINESWEEPER\DEBUG\GAMEBOARD.OBJ|C:\USERS\SEAN\VISUALSTUDIO2017\REPO\MINESWEEPER\MINESWEEPER\MINESWEEPER\DEBUG\MINESWEEPER.OBJ|C:\USERS\SEAN\VISUALSTUDIO2017\REPO\MINESWEEPER\MINESWEEPER\MINESWEEPER\DEBUG\STDAFX.OBJ
C:\USERS\SEAN\VISUALSTUDIO2017\REPO\MINESWEEPER\MINESWEEPER\DEBUG\MINESWEEPER.ILK
C:\USERS\SEAN\VISUALSTUDIO2017\REPO\MINESWEEPER\MINESWEEPER\DEBUG\MINESWEEPER.EXE
C:\USERS\SEAN\VISUALSTUDIO2017\REPO\MINESWEEPER\MINESWEEPER\DEBUG\MINESWEEPER.PDB
